<svg xmlns="http://www.w3.org/2000/svg" width="74.481" height="69.676" viewBox="0 0 74.481 69.676">
  <g id="manufacture" transform="translate(0 1.168)">
    <path id="Path_81" data-name="Path 81" d="M1.2,28.865H7.866a17.866,17.866,0,0,0,1.692,4.07L4.841,37.65a1.2,1.2,0,0,0,0,1.7l5.1,5.1a1.2,1.2,0,0,0,1.7,0l4.717-4.718a17.854,17.854,0,0,0,4.069,1.692v6.664a1.2,1.2,0,0,0,1.2,1.2h7.208a1.2,1.2,0,0,0,1.2-1.2V41.421A17.854,17.854,0,0,0,34.1,39.73l4.717,4.718a1.237,1.237,0,0,0,1.7,0l5.1-5.1a1.2,1.2,0,0,0,0-1.7L40.9,32.935a17.866,17.866,0,0,0,1.692-4.07h6.664a1.2,1.2,0,0,0,1.2-1.2V20.456a1.2,1.2,0,0,0-1.2-1.2H42.589a17.871,17.871,0,0,0-1.692-4.07l4.717-4.715a1.2,1.2,0,0,0,0-1.7l-5.1-5.1a1.2,1.2,0,0,0-1.7,0L34.1,8.39A17.905,17.905,0,0,0,30.033,6.7V.033a1.2,1.2,0,0,0-1.2-1.2H21.624a1.2,1.2,0,0,0-1.2,1.2V6.7A17.905,17.905,0,0,0,16.353,8.39L11.636,3.672a1.237,1.237,0,0,0-1.7,0l-5.1,5.1a1.2,1.2,0,0,0,0,1.7l4.718,4.715a17.871,17.871,0,0,0-1.692,4.07H1.2a1.2,1.2,0,0,0-1.2,1.2v7.208A1.2,1.2,0,0,0,1.2,28.865Zm1.2-7.208h6.4a1.2,1.2,0,0,0,1.174-.944,15.456,15.456,0,0,1,2.1-5.062,1.2,1.2,0,0,0-.162-1.5L7.388,9.619l3.4-3.4,4.533,4.534a1.2,1.2,0,0,0,1.5.163,15.48,15.48,0,0,1,5.062-2.1,1.2,1.2,0,0,0,.944-1.174v-6.4H27.63v6.4a1.2,1.2,0,0,0,.944,1.174,15.48,15.48,0,0,1,5.062,2.1,1.2,1.2,0,0,0,1.5-.163L39.669,6.22l3.4,3.4-4.533,4.532a1.2,1.2,0,0,0-.162,1.5,15.452,15.452,0,0,1,2.1,5.063,1.2,1.2,0,0,0,1.174.945h6.4v4.805h-6.4a1.2,1.2,0,0,0-1.174.944,15.437,15.437,0,0,1-2.1,5.061,1.2,1.2,0,0,0,.162,1.5L43.067,38.5l-3.4,3.4-4.533-4.534a1.2,1.2,0,0,0-1.5-.162,15.444,15.444,0,0,1-5.061,2.1,1.2,1.2,0,0,0-.946,1.174v6.4H22.825v-6.4a1.2,1.2,0,0,0-.946-1.174,15.444,15.444,0,0,1-5.061-2.1,1.2,1.2,0,0,0-1.5.162L10.786,41.9l-3.4-3.4,4.533-4.533a1.2,1.2,0,0,0,.162-1.5,15.461,15.461,0,0,1-2.1-5.063,1.2,1.2,0,0,0-1.174-.943H2.4Zm0,0" fill="#9e9e9e"/>
    <path id="Path_82" data-name="Path 82" d="M139.61,148.053a9.61,9.61,0,1,0-9.61-9.61A9.61,9.61,0,0,0,139.61,148.053Zm0-16.818a7.208,7.208,0,1,1-7.208,7.208A7.209,7.209,0,0,1,139.61,131.235Zm0,0" transform="translate(-114.383 -114.383)" fill="#9e9e9e"/>
    <path id="Path_83" data-name="Path 83" d="M113.214,125.261A13.214,13.214,0,1,0,100,112.046,13.214,13.214,0,0,0,113.214,125.261Zm0-24.026A10.812,10.812,0,1,1,102.4,112.046,10.812,10.812,0,0,1,113.214,101.235Zm0,0" transform="translate(-87.987 -87.987)" fill="#9e9e9e"/>
    <path id="Path_84" data-name="Path 84" d="M68.475,300.456v-9.61a1.2,1.2,0,0,0-1.2-1.2h-2.4v-9.61a1.2,1.2,0,0,0-1.2-1.2H52.858a1.2,1.2,0,0,0-1.2,1.2v9.61H45.65a1.2,1.2,0,0,0-1.2,1.2v9.61H6.007A6.014,6.014,0,0,0,0,306.462v2.4a6.013,6.013,0,0,0,6.007,6.007H68.475a6.013,6.013,0,0,0,6.007-6.007v-2.4A6.014,6.014,0,0,0,68.475,300.456Zm-2.4,0H57.663v-8.409h8.409ZM54.059,281.235h8.409v8.409H54.059Zm-7.208,10.812H55.26v8.409H46.851Zm25.228,16.818a3.6,3.6,0,0,1-3.6,3.6H6.007a3.6,3.6,0,0,1-3.6-3.6v-2.4a3.6,3.6,0,0,1,3.6-3.6H68.475a3.6,3.6,0,0,1,3.6,3.6Zm0,0" transform="translate(0 -246.363)" fill="#9e9e9e"/>
    <path id="Path_85" data-name="Path 85" d="M283.6,488.832a3.6,3.6,0,1,0,3.6,3.6A3.6,3.6,0,0,0,283.6,488.832Zm0,4.805a1.2,1.2,0,1,1,1.2-1.2A1.2,1.2,0,0,1,283.6,493.637Zm0,0" transform="translate(-246.363 -431.136)" fill="#9e9e9e"/>
    <path id="Path_86" data-name="Path 86" d="M183.6,488.832a3.6,3.6,0,1,0,3.6,3.6A3.6,3.6,0,0,0,183.6,488.832Zm0,4.805a1.2,1.2,0,1,1,1.2-1.2A1.2,1.2,0,0,1,183.6,493.637Zm0,0" transform="translate(-158.376 -431.136)" fill="#9e9e9e"/>
    <path id="Path_87" data-name="Path 87" d="M383.6,488.832a3.6,3.6,0,1,0,3.6,3.6A3.6,3.6,0,0,0,383.6,488.832Zm0,4.805a1.2,1.2,0,1,1,1.2-1.2A1.2,1.2,0,0,1,383.6,493.637Zm0,0" transform="translate(-334.35 -431.136)" fill="#9e9e9e"/>
    <path id="Path_88" data-name="Path 88" d="M83.6,488.832a3.6,3.6,0,1,0,3.6,3.6A3.6,3.6,0,0,0,83.6,488.832Zm0,4.805a1.2,1.2,0,1,1,1.2-1.2A1.2,1.2,0,0,1,83.6,493.637Zm0,0" transform="translate(-70.39 -431.136)" fill="#9e9e9e"/>
    <path id="Path_89" data-name="Path 89" d="M483.6,488.832a3.6,3.6,0,1,0,3.6,3.6A3.6,3.6,0,0,0,483.6,488.832Zm0,4.805a1.2,1.2,0,1,1,1.2-1.2A1.2,1.2,0,0,1,483.6,493.637Zm0,0" transform="translate(-422.337 -431.136)" fill="#9e9e9e"/>
  </g>
</svg>
