<svg xmlns="http://www.w3.org/2000/svg" width="60.285" height="82.064" viewBox="0 0 60.285 82.064">
  <g id="money" transform="translate(-0.018)">
    <path id="Path_63" data-name="Path 63" d="M10.875,328.561a1,1,0,0,0-1.153-.81L.843,329.3a1,1,0,0,0-.81,1.154l3.408,19.484a1,1,0,0,0,1.154.81l8.879-1.553a1,1,0,0,0,.81-1.153L14.1,347l2.112-1.715a4.156,4.156,0,0,1,2.971-.951l14.479,1.058c.022,0,.045,0,.066,0a15.047,15.047,0,0,0,8.921-2.891,1.027,1.027,0,0,0,.108-.091L60,325.528a1,1,0,0,0,.056-1.366,5.6,5.6,0,0,0-7.7-.733l-7.991,5.976a7.113,7.113,0,0,0-6.77-2.558l-8.1,1.416a8.818,8.818,0,0,1-3.914-.2l-.906-.258a14.607,14.607,0,0,0-13.441,2.865ZM5.233,348.617,2.168,331.1l6.916-1.21,3.065,17.521Zm18.905-18.9.906.258a10.828,10.828,0,0,0,4.8.251l8.1-1.416A5.126,5.126,0,0,1,43.6,332l-12.232,2.139a1,1,0,1,0,.344,1.963l13.31-2.328a1,1,0,0,0,.81-1.154,7.081,7.081,0,0,0-.435-1.493l8.174-6.113.021-.016a3.609,3.609,0,0,1,4.266-.157l-16.438,16.1a13,13,0,0,1-7.641,2.464l-14.445-1.056a6.133,6.133,0,0,0-4.38,1.4l-1.241,1.008L11.652,333A12.628,12.628,0,0,1,24.138,329.718Zm0,0" transform="translate(0 -268.704)" fill="#9e9e9e"/>
    <path id="Path_64" data-name="Path 64" d="M202.313,174.993a1,1,0,1,0,0-1.993h-7.246a1,1,0,1,0,0,1.993h2.073A2.155,2.155,0,0,1,199,176.156h-3.935a1,1,0,1,0,0,1.993H199a2.013,2.013,0,0,1-1.862,1h-2.073a1.023,1.023,0,0,0-.685,1.757l5.182,4.9a1,1,0,1,0,1.368-1.444l-3.383-3.16a4.069,4.069,0,0,0,3.573-3.052h1.19a1,1,0,1,0,0-1.993h-1.19a3.267,3.267,0,0,0-.463-1.163Zm0,0" transform="translate(-161.819 -144.263)" fill="#9e9e9e"/>
    <path id="Path_65" data-name="Path 65" d="M94.684,106.336a21.129,21.129,0,1,0,21.129-21.129A21.129,21.129,0,0,0,94.684,106.336Zm5.2,1.1a15.9,15.9,0,0,0,3.948,9.448l-2.242,2.242a19.061,19.061,0,0,1-4.878-11.691Zm5.356,10.859a15.905,15.905,0,0,0,9.346,3.968v3.172a19.058,19.058,0,0,1-11.588-4.9Zm11.34,4a15.9,15.9,0,0,0,9.7-3.9l2.242,2.242a19.056,19.056,0,0,1-11.944,4.826Zm-.764-1.975a13.976,13.976,0,1,1,13.976-13.976A13.976,13.976,0,0,1,115.813,120.312Zm10.543-25.958a15.9,15.9,0,0,0-9.779-3.968V87.217A19.056,19.056,0,0,1,128.6,92.112Zm-11.772-3.939a15.907,15.907,0,0,0-9.423,4.035l-2.241-2.241a19.061,19.061,0,0,1,11.664-4.967ZM103.762,95.87a15.9,15.9,0,0,0-3.893,9.568H96.7a19.057,19.057,0,0,1,4.821-11.811Zm26.178,23.36-2.241-2.242a15.91,15.91,0,0,0,4.044-9.556h3.172a19.066,19.066,0,0,1-4.975,11.8Zm4.986-13.792h-3.171a15.9,15.9,0,0,0-3.989-9.677l2.242-2.242A19.057,19.057,0,0,1,134.926,105.438Zm0,0" transform="translate(-78.941 -71.053)" fill="#9e9e9e"/>
    <path id="Path_66" data-name="Path 66" d="M216.478,10.8V1a1,1,0,0,0-1.993,0v9.8a1,1,0,0,0,1.993,0Zm0,0" transform="translate(-178.842)" fill="#9e9e9e"/>
    <path id="Path_67" data-name="Path 67" d="M255.478,26.641V20a1,1,0,0,0-1.993,0v6.644a1,1,0,0,0,1.993,0Zm0,0" transform="translate(-211.363 -15.844)" fill="#9e9e9e"/>
    <path id="Path_68" data-name="Path 68" d="M178.478,26.641V20a1,1,0,0,0-1.993,0v6.644a1,1,0,0,0,1.993,0Zm0,0" transform="translate(-147.154 -15.844)" fill="#9e9e9e"/>
    <path id="Path_69" data-name="Path 69" d="M283.478,44.146V39a1,1,0,0,0-1.993,0v5.149a1,1,0,0,0,1.993,0Zm0,0" transform="translate(-234.712 -31.688)" fill="#9e9e9e"/>
    <path id="Path_70" data-name="Path 70" d="M149.478,44.146V39a1,1,0,0,0-1.993,0v5.149a1,1,0,0,0,1.993,0Zm0,0" transform="translate(-122.971 -31.688)" fill="#9e9e9e"/>
  </g>
</svg>
